simulation/qsim/Main.msim.vcd
$comment
	File created using the following command:
		vcd file Main.msim.vcd -direction
$end
$date
	Tue Apr 27 12:49:41 2021
$end
$version
	ModelSim Version 10.5b
$end
$timescale
	1ps
$end

$scope module Main_vlg_vec_tst $end
$var reg 1 ! aceito $end
$var reg 1 " clk50Mhz $end
$var reg 1 # comprometido $end
$var reg 1 $ rejeitado $end
$var reg 1 % rst $end
$var wire 1 & C0 $end
$var wire 1 ' C1 $end
$var wire 1 ( C2 $end
$var wire 1 ) C3 $end
$var wire 1 * C4 $end
$var wire 1 + L0 $end
$var wire 1 , L1 $end
$var wire 1 - L2 $end
$var wire 1 . L3 $end
$var wire 1 / L4 $end
$var wire 1 0 L5 $end
$var wire 1 1 L6 $end

$scope module i1 $end
$var wire 1 2 gnd $end
$var wire 1 3 vcc $end
$var wire 1 4 unknown $end
$var tri1 1 5 devclrn $end
$var tri1 1 6 devpor $end
$var tri1 1 7 devoe $end
$var wire 1 8 clk50Mhz~combout $end
$var wire 1 9 divClk|df0|dff|q~regout $end
$var wire 1 : rst~combout $end
$var wire 1 ; matrix|colunas|demultiplex|Decoder0~0_combout $end
$var wire 1 < matrix|colunas|demultiplex|Decoder0~1_combout $end
$var wire 1 = matrix|colunas|demultiplex|Decoder0~2_combout $end
$var wire 1 > matrix|colunas|demultiplex|Decoder0~3_combout $end
$var wire 1 ? matrix|colunas|demultiplex|Decoder0~4_combout $end
$var wire 1 @ matrix|linha0|multiplexer|Mux1~0_combout $end
$var wire 1 A divClk|df1|dff|q~regout $end
$var wire 1 B divClk|df2|dff|q~regout $end
$var wire 1 C divClk|df3|dff|q~regout $end
$var wire 1 D divClk|df4|dff|q~regout $end
$var wire 1 E divClk|df5|dff|q~regout $end
$var wire 1 F gen_char|char_c|WideOr0~0_combout $end
$var wire 1 G gen_char|char_a|Decoder0~0_combout $end
$var wire 1 H comprometido~combout $end
$var wire 1 I rejeitado~combout $end
$var wire 1 J aceito~combout $end
$var wire 1 K select_mensage|coder_mensage|always0~1_combout $end
$var wire 1 L gen_char|finish~combout $end
$var wire 1 M counter_caracter|Add0~0_combout $end
$var wire 1 N select_mensage|coder_mensage|always0~0_combout $end
$var wire 1 O counter_caracter|Equal0~0_combout $end
$var wire 1 P counter_caracter|Equal0~1_combout $end
$var wire 1 Q select_mensage|comprometido_modulo|multiplex|Mux3~0_combout $end
$var wire 1 R select_mensage|Multiplexer_0|Mux3~1_combout $end
$var wire 1 S select_mensage|Multiplexer_0|Mux3~2_combout $end
$var wire 1 T select_mensage|Multiplexer_0|Mux3~0_combout $end
$var wire 1 U matrix|linha0|dff0|q~regout $end
$var wire 1 V matrix|linha0|dff1|q~regout $end
$var wire 1 W matrix|linha0|dff2|q~regout $end
$var wire 1 X matrix|linha0|dff3|q~regout $end
$var wire 1 Y matrix|linha0|dff4|q~regout $end
$var wire 1 Z matrix|linha0|multiplexer|Mux0~0_combout $end
$var wire 1 [ matrix|linha0|multiplexer|Mux0~1_combout $end
$var wire 1 \ matrix|linha0|multiplexer|Mux0~2_combout $end
$var wire 1 ] matrix|linha1|dff0|q~regout $end
$var wire 1 ^ matrix|linha1|dff1|q~regout $end
$var wire 1 _ matrix|linha1|dff2|q~regout $end
$var wire 1 ` matrix|linha1|dff3|q~regout $end
$var wire 1 a matrix|linha1|dff4|q~regout $end
$var wire 1 b matrix|linha1|multiplexer|Mux0~0_combout $end
$var wire 1 c matrix|linha1|multiplexer|Mux0~1_combout $end
$var wire 1 d matrix|linha1|multiplexer|Mux0~2_combout $end
$var wire 1 e gen_char|char_a|Decoder0~1_combout $end
$var wire 1 f matrix|linha2|dff0|q~regout $end
$var wire 1 g matrix|linha2|dff1|q~regout $end
$var wire 1 h matrix|linha2|dff2|q~regout $end
$var wire 1 i matrix|linha2|dff3|q~regout $end
$var wire 1 j matrix|linha2|dff4|q~regout $end
$var wire 1 k matrix|linha2|multiplexer|Mux0~0_combout $end
$var wire 1 l matrix|linha2|multiplexer|Mux0~1_combout $end
$var wire 1 m matrix|linha2|multiplexer|Mux0~2_combout $end
$var wire 1 n gen_char|char_a|WideOr0~0_combout $end
$var wire 1 o matrix|linha4|dff0|q~regout $end
$var wire 1 p matrix|linha4|dff1|q~regout $end
$var wire 1 q matrix|linha4|dff2|q~regout $end
$var wire 1 r matrix|linha4|dff3|q~regout $end
$var wire 1 s matrix|linha4|dff4|q~regout $end
$var wire 1 t matrix|linha4|multiplexer|Mux0~0_combout $end
$var wire 1 u matrix|linha4|multiplexer|Mux0~1_combout $end
$var wire 1 v matrix|linha4|multiplexer|Mux0~2_combout $end
$var wire 1 w matrix|linha5|dff0|q~regout $end
$var wire 1 x matrix|linha5|dff1|q~regout $end
$var wire 1 y matrix|linha5|dff2|q~regout $end
$var wire 1 z matrix|linha5|dff3|q~regout $end
$var wire 1 { matrix|linha5|dff4|q~regout $end
$var wire 1 | matrix|linha5|multiplexer|Mux0~0_combout $end
$var wire 1 } matrix|linha5|multiplexer|Mux0~1_combout $end
$var wire 1 ~ matrix|linha5|multiplexer|Mux0~2_combout $end
$var wire 1 !! matrix|linha6|dff0|q~regout $end
$var wire 1 "! matrix|linha6|dff1|q~regout $end
$var wire 1 #! matrix|linha6|dff2|q~regout $end
$var wire 1 $! matrix|linha6|dff3|q~regout $end
$var wire 1 %! matrix|linha6|dff4|q~regout $end
$var wire 1 &! matrix|linha6|multiplexer|Mux0~0_combout $end
$var wire 1 '! matrix|linha6|multiplexer|Mux0~1_combout $end
$var wire 1 (! matrix|linha6|multiplexer|Mux0~2_combout $end
$var wire 1 )! matrix|linha5|multiplexer|out [0] $end
$var wire 1 *! counter_caracter|val [3] $end
$var wire 1 +! counter_caracter|val [2] $end
$var wire 1 ,! counter_caracter|val [1] $end
$var wire 1 -! counter_caracter|val [0] $end
$var wire 1 .! matrix|counter|val [2] $end
$var wire 1 /! matrix|counter|val [1] $end
$var wire 1 0! matrix|counter|val [0] $end
$var wire 1 1! counter_coluna|val [3] $end
$var wire 1 2! counter_coluna|val [2] $end
$var wire 1 3! counter_coluna|val [1] $end
$var wire 1 4! counter_coluna|val [0] $end
$var wire 1 5! matrix|linha1|multiplexer|out [0] $end
$var wire 1 6! matrix|linha0|multiplexer|out [0] $end
$var wire 1 7! matrix|linha2|multiplexer|out [0] $end
$var wire 1 8! matrix|linha4|multiplexer|out [0] $end
$var wire 1 9! matrix|linha6|multiplexer|out [0] $end
$upscope $end
$upscope $end
$enddefinitions $end
#0
$dumpvars
0!
0"
0#
1$
0%
1&
0'
0(
0)
0*
0+
0,
0-
0.
0/
00
01
02
13
x4
15
16
17
08
09
0:
1;
0<
0=
0>
0?
1@
0A
0B
0C
0D
0E
1F
0G
0H
1I
0J
0K
0L
0M
0N
1O
0P
0Q
0R
1S
1T
0U
0V
0W
0X
0Y
0Z
0[
0\
0]
0^
0_
0`
0a
0b
0c
0d
1e
0f
0g
0h
0i
0j
0k
0l
0m
1n
0o
0p
0q
0r
0s
0t
0u
0v
0w
0x
0y
0z
0{
0|
0}
0~
0!!
0"!
0#!
0$!
0%!
0&!
0'!
0(!
0)!
0-!
0,!
0+!
0*!
00!
0/!
0.!
04!
03!
02!
01!
05!
06!
07!
08!
09!
$end
#10000
1"
18
19
1A
10!
1<
0;
1'
0&
1B
1C
1D
1E
1!!
1U
14!
0e
0F
#20000
0"
08
#30000
1"
18
09
#40000
0"
08
#50000
1"
18
19
0A
00!
1/!
1=
0<
1(
0'
#60000
0"
08
#70000
1"
18
09
#80000
0"
08
#90000
1"
18
19
1A
10!
1&!
1|
1t
1k
1b
1Z
1>
0=
1)
0(
0B
#100000
0"
08
#110000
1"
18
09
#120000
0"
08
#130000
1"
18
19
0A
00!
1.!
0/!
0&!
1}
0|
0t
1l
0k
0b
0Z
1?
0>
1(!
1\
1'!
1u
1c
1[
0'!
0}
0u
0l
0c
0[
19!
16!
1*
0)
11
1+
#140000
0"
08
#150000
1"
18
09
#160000
0"
08
#170000
1"
18
19
1A
0.!
0(!
0\
0?
1;
09!
06!
0*
1&
01
0+
1B
0C
#180000
0"
08
#190000
1"
18
09
#200000
0"
08
#210000
1"
18
19
0A
10!
1<
0;
1'
0&
#220000
0"
08
#230000
1"
18
09
#240000
0"
08
#250000
1"
18
19
1A
00!
1/!
1=
0<
1(
0'
0B
#260000
0"
08
#270000
1"
18
09
#280000
0"
08
#290000
1"
18
19
0A
10!
1&!
1|
1t
1k
1b
1Z
1>
0=
1)
0(
#300000
0"
08
#310000
1"
18
09
#320000
0"
08
#330000
1"
18
19
1A
00!
1.!
0/!
0&!
1}
0|
0t
1l
0k
0b
0Z
1?
0>
1(!
1\
1'!
1u
1c
1[
0'!
0}
0u
0l
0c
0[
19!
16!
1*
0)
11
1+
1B
1C
0D
#340000
0"
08
#350000
1"
18
09
#360000
0"
08
#370000
1"
18
19
0A
0.!
0(!
0\
0?
1;
09!
06!
0*
1&
01
0+
#380000
0"
08
#390000
1"
18
09
#400000
0"
08
#410000
1"
18
19
1A
10!
1<
0;
1'
0&
0B
#420000
0"
08
#430000
1"
18
09
#440000
0"
08
#450000
1"
18
19
0A
00!
1/!
1=
0<
1(
0'
#460000
0"
08
#470000
1"
18
09
#480000
0"
08
#490000
1"
18
19
1A
10!
1&!
1|
1t
1k
1b
1Z
1>
0=
1)
0(
1B
0C
#500000
0"
08
#510000
1"
18
09
#520000
0"
08
#530000
1"
18
19
0A
00!
1.!
0/!
0&!
1}
0|
0t
1l
0k
0b
0Z
1?
0>
1(!
1\
1'!
1u
1c
1[
0'!
0}
0u
0l
0c
0[
19!
16!
1*
0)
11
1+
#540000
0"
08
#550000
1"
18
09
#560000
0"
08
#570000
1"
18
19
1A
0.!
0(!
0\
0?
1;
09!
06!
0*
1&
01
0+
0B
#580000
0"
08
#590000
1"
18
09
#600000
0"
08
#610000
1"
18
19
0A
10!
1<
0;
1'
0&
#620000
0"
08
#630000
1"
18
09
#640000
0"
08
#650000
1"
18
19
1A
00!
1/!
1=
0<
1(
0'
1B
1C
1D
0E
#660000
0"
08
#670000
1"
18
09
#680000
0"
08
#690000
1"
18
19
0A
10!
1&!
1|
1t
1k
1b
1Z
1>
0=
1)
0(
#700000
0"
08
#710000
1"
18
09
#720000
0"
08
#730000
1"
18
19
1A
00!
1.!
0/!
0&!
1}
0|
0t
1l
0k
0b
0Z
1?
0>
1(!
1\
1'!
1u
1c
1[
0'!
0}
0u
0l
0c
0[
19!
16!
1*
0)
11
1+
0B
#740000
0"
08
#750000
1"
18
09
#760000
0"
08
#770000
1"
18
19
0A
0.!
0(!
0\
0?
1;
09!
06!
0*
1&
01
0+
#780000
0"
08
#790000
1"
18
09
#800000
0"
08
#810000
1"
18
19
1A
10!
1<
0;
1'
0&
1B
0C
#820000
0"
08
#830000
1"
18
09
#840000
0"
08
#850000
1"
18
19
0A
00!
1/!
1=
0<
1(
0'
#860000
0"
08
#870000
1"
18
09
#880000
0"
08
#890000
1"
18
19
1A
10!
1&!
1|
1t
1k
1b
1Z
1>
0=
1)
0(
0B
#900000
0"
08
#910000
1"
18
09
#920000
0"
08
#930000
1"
18
19
0A
00!
1.!
0/!
0&!
1}
0|
0t
1l
0k
0b
0Z
1?
0>
1(!
1\
1'!
1u
1c
1[
0'!
0}
0u
0l
0c
0[
19!
16!
1*
0)
11
1+
#940000
0"
08
#950000
1"
18
09
#960000
0"
08
#970000
1"
18
19
1A
0.!
0(!
0\
0?
1;
09!
06!
0*
1&
01
0+
1B
1C
0D
#980000
0"
08
#990000
1"
18
09
#1000000
0"
08
#1010000
1"
18
19
0A
10!
1<
0;
1'
0&
#1020000
0"
08
#1030000
1"
18
09
#1040000
0"
08
#1050000
1"
18
19
1A
00!
1/!
1=
0<
1(
0'
0B
#1060000
0"
08
#1070000
1"
18
09
#1080000
0"
08
#1090000
1"
18
19
0A
10!
1&!
1|
1t
1k
1b
1Z
1>
0=
1)
0(
#1100000
0"
08
#1110000
1"
18
09
#1120000
0"
08
#1130000
1"
18
19
1A
00!
1.!
0/!
0&!
1}
0|
0t
1l
0k
0b
0Z
1?
0>
1(!
1\
1'!
1u
1c
1[
0'!
0}
0u
0l
0c
0[
19!
16!
1*
0)
11
1+
1B
0C
#1140000
0"
08
#1150000
1"
18
09
#1160000
0"
08
#1170000
1"
18
19
0A
0.!
0(!
0\
0?
1;
09!
06!
0*
1&
01
0+
#1180000
0"
08
#1190000
1"
18
09
#1200000
0"
08
#1210000
1"
18
19
1A
10!
1<
0;
1'
0&
0B
#1220000
0"
08
#1230000
1"
18
09
#1240000
0"
08
#1250000
1"
18
19
0A
00!
1/!
1=
0<
1(
0'
#1260000
0"
08
#1270000
1"
18
09
#1280000
0"
08
#1290000
1"
18
19
1A
10!
1&!
1|
1t
1k
1b
1Z
1>
0=
1)
0(
1B
1C
1D
1E
1"!
0!!
1w
1o
1f
1]
1V
0U
13!
04!
1'!
1[
1G
1(!
1\
19!
16!
11
1+
#1300000
0"
08
#1310000
1"
18
09
#1320000
0"
08
#1330000
1"
18
19
0A
00!
1.!
0/!
0&!
1}
0|
0t
1l
0k
0b
0Z
1?
0>
0(!
1~
1v
1m
1d
0\
1u
1c
0'!
0}
0u
0l
0c
0[
09!
1)!
18!
17!
15!
06!
1*
0)
01
10
1/
1.
1-
1,
0+
#1340000
0"
08
#1350000
1"
18
09
#1360000
0"
08
#1370000
1"
18
19
1A
0.!
0~
0v
0m
0d
0?
1;
0)!
08!
07!
05!
0*
1&
00
0/
0.
0-
0,
0B
#1380000
0"
08
#1390000
1"
18
09
#1400000
0"
08
#1410000
1"
18
19
0A
10!
1<
0;
1'
0&
#1420000
0"
08
#1430000
1"
18
09
#1440000
0"
08
#1450000
1"
18
19
1A
00!
1/!
1=
0<
1(
0'
1B
0C
#1460000
0"
08
#1470000
1"
18
09
#1480000
0"
08
#1490000
1"
18
19
0A
10!
1&!
1|
1t
1k
1b
1Z
1>
0=
1'!
1[
1)
0(
1(!
1\
19!
16!
11
1+
#1500000
0"
08
#1510000
1"
18
09
#1520000
0"
08
#1530000
1"
18
19
1A
00!
1.!
0/!
0&!
1}
0|
0t
1l
0k
0b
0Z
1?
0>
0(!
1~
1v
1m
1d
0\
1u
1c
0'!
0}
0u
0l
0c
0[
09!
1)!
18!
17!
15!
06!
1*
0)
01
10
1/
1.
1-
1,
0+
0B
#1540000
0"
08
#1550000
1"
18
09
#1560000
0"
08
#1570000
1"
18
19
0A
0.!
0~
0v
0m
0d
0?
1;
0)!
08!
07!
05!
0*
1&
00
0/
0.
0-
0,
#1580000
0"
08
#1590000
1"
18
09
#1600000
0"
08
#1610000
1"
18
19
1A
10!
1<
0;
1'
0&
1B
1C
0D
#1620000
0"
08
#1630000
1"
18
09
#1640000
0"
08
#1650000
1"
18
19
0A
00!
1/!
1=
0<
1(
0'
#1660000
0"
08
#1670000
1"
18
09
#1680000
0"
08
#1690000
1"
18
19
1A
10!
1&!
1|
1t
1k
1b
1Z
1>
0=
1'!
1[
1)
0(
1(!
1\
19!
16!
11
1+
0B
#1700000
0"
08
#1710000
1"
18
09
#1720000
0"
08
#1730000
1"
18
19
0A
00!
1.!
0/!
0&!
1}
0|
0t
1l
0k
0b
0Z
1?
0>
0(!
1~
1v
1m
1d
0\
1u
1c
0'!
0}
0u
0l
0c
0[
09!
1)!
18!
17!
15!
06!
1*
0)
01
10
1/
1.
1-
1,
0+
#1740000
0"
08
#1750000
1"
18
09
#1760000
0"
08
#1770000
1"
18
19
1A
0.!
0~
0v
0m
0d
0?
1;
0)!
08!
07!
05!
0*
1&
00
0/
0.
0-
0,
1B
0C
#1780000
0"
08
#1790000
1"
18
09
#1800000
0"
08
#1810000
1"
18
19
0A
10!
1<
0;
1'
0&
#1820000
0"
08
#1830000
1"
18
09
#1840000
0"
08
#1850000
1"
18
19
1A
00!
1/!
1=
0<
1(
0'
0B
#1860000
0"
08
#1870000
1"
18
09
#1880000
0"
08
#1890000
1"
18
19
0A
10!
1&!
1|
1t
1k
1b
1Z
1>
0=
1'!
1[
1)
0(
1(!
1\
19!
16!
11
1+
#1900000
0"
08
#1910000
1"
18
09
#1920000
0"
08
#1930000
1"
18
19
1A
00!
1.!
0/!
0&!
1}
0|
0t
1l
0k
0b
0Z
1?
0>
0(!
1~
1v
1m
1d
0\
1u
1c
0'!
0}
0u
0l
0c
0[
09!
1)!
18!
17!
15!
06!
1*
0)
01
10
1/
1.
1-
1,
0+
1B
1C
1D
0E
#1940000
0"
08
#1950000
1"
18
09
#1960000
0"
08
#1970000
1"
18
19
0A
0.!
0~
0v
0m
0d
0?
1;
0)!
08!
07!
05!
0*
1&
00
0/
0.
0-
0,
#1980000
0"
08
#1990000
1"
18
09
#2000000
0"
08
#2010000
1"
18
19
1A
10!
1<
0;
1'
0&
0B
#2020000
0"
08
#2030000
1"
18
09
#2040000
0"
08
#2050000
1"
18
19
0A
00!
1/!
1=
0<
1(
0'
#2060000
0"
08
#2070000
1"
18
09
#2080000
0"
08
#2090000
1"
18
19
1A
10!
1&!
1|
1t
1k
1b
1Z
1>
0=
1'!
1[
1)
0(
1(!
1\
19!
16!
11
1+
1B
0C
#2100000
0"
08
#2110000
1"
18
09
#2120000
0"
08
#2130000
1"
18
19
0A
00!
1.!
0/!
0&!
1}
0|
0t
1l
0k
0b
0Z
1?
0>
0(!
1~
1v
1m
1d
0\
1u
1c
0'!
0}
0u
0l
0c
0[
09!
1)!
18!
17!
15!
06!
1*
0)
01
10
1/
1.
1-
1,
0+
#2140000
0"
08
#2150000
1"
18
09
#2160000
0"
08
#2170000
1"
18
19
1A
0.!
0~
0v
0m
0d
0?
1;
0)!
08!
07!
05!
0*
1&
00
0/
0.
0-
0,
0B
#2180000
0"
08
#2190000
1"
18
09
#2200000
0"
08
#2210000
1"
18
19
0A
10!
1<
0;
1'
0&
#2220000
0"
08
#2230000
1"
18
09
#2240000
0"
08
#2250000
1"
18
19
1A
00!
1/!
1=
0<
1(
0'
1B
1C
0D
#2260000
0"
08
#2270000
1"
18
09
#2280000
0"
08
#2290000
1"
18
19
0A
10!
1&!
1|
1t
1k
1b
1Z
1>
0=
1'!
1[
1)
0(
1(!
1\
19!
16!
11
1+
#2300000
0"
08
#2310000
1"
18
09
#2320000
0"
08
#2330000
1"
18
19
1A
00!
1.!
0/!
0&!
1}
0|
0t
1l
0k
0b
0Z
1?
0>
0(!
1~
1v
1m
1d
0\
1u
1c
0'!
0}
0u
0l
0c
0[
09!
1)!
18!
17!
15!
06!
1*
0)
01
10
1/
1.
1-
1,
0+
0B
#2340000
0"
08
#2350000
1"
18
09
#2360000
0"
08
#2370000
1"
18
19
0A
0.!
0~
0v
0m
0d
0?
1;
0)!
08!
07!
05!
0*
1&
00
0/
0.
0-
0,
#2380000
0"
08
#2390000
1"
18
09
#2400000
0"
08
#2410000
1"
18
19
1A
10!
1<
0;
1'
0&
1B
0C
#2420000
0"
08
#2430000
1"
18
09
#2440000
0"
08
#2450000
1"
18
19
0A
00!
1/!
1=
0<
1(
0'
#2460000
0"
08
#2470000
1"
18
09
#2480000
0"
08
#2490000
1"
18
19
1A
10!
1&!
1|
1t
1k
1b
1Z
1>
0=
1'!
1[
1)
0(
1(!
1\
19!
16!
11
1+
0B
#2500000
0"
08
#2510000
1"
18
09
#2520000
0"
08
#2530000
1"
18
19
0A
00!
1.!
0/!
0&!
1}
0|
0t
1l
0k
0b
0Z
1?
0>
0(!
1~
1v
1m
1d
0\
1u
1c
0'!
0}
0u
0l
0c
0[
09!
1)!
18!
17!
15!
06!
1*
0)
01
10
1/
1.
1-
1,
0+
#2540000
0"
08
#2550000
1"
18
09
#2560000
0"
08
#2570000
1"
18
19
1A
0.!
0~
0v
0m
0d
0?
1;
0)!
08!
07!
05!
0*
1&
00
0/
0.
0-
0,
1B
1C
1D
1E
1#!
0"!
1x
1p
1g
1^
1W
0V
14!
0G
#2580000
0"
08
#2590000
1"
18
09
#2600000
0"
08
#2610000
1"
18
19
0A
10!
1<
0;
1'
0&
#2620000
0"
08
#2630000
1"
18
09
#2640000
0"
08
#2650000
1"
18
19
1A
00!
1/!
1=
0<
1'!
1[
1(!
1\
1(
0'
19!
16!
11
1+
0B
#2660000
0"
08
#2670000
1"
18
09
#2680000
0"
08
#2690000
1"
18
19
0A
10!
1&!
1|
1t
1k
1b
1Z
1>
0=
0'!
1}
1u
1l
1c
0[
1)
0(
0(!
1~
1v
1m
1d
0\
09!
1)!
18!
17!
15!
06!
01
10
1/
1.
1-
1,
0+
#2700000
0"
08
#2710000
1"
18
09
#2720000
0"
08
#2730000
1"
18
19
1A
00!
1.!
0/!
0&!
0|
0t
0k
0b
0Z
1?
0>
1'!
1[
0'!
0}
0u
0l
0c
0[
1*
0)
1B
0C
#2740000
0"
08
#2750000
1"
18
09
#2760000
0"
08
#2770000
1"
18
19
0A
0.!
0~
0v
0m
0d
0?
1;
0)!
08!
07!
05!
0*
1&
00
0/
0.
0-
0,
#2780000
0"
08
#2790000
1"
18
09
#2800000
0"
08
#2810000
1"
18
19
1A
10!
1<
0;
1'
0&
0B
#2820000
0"
08
#2830000
1"
18
09
#2840000
0"
08
#2850000
1"
18
19
0A
00!
1/!
1=
0<
1'!
1[
1(!
1\
1(
0'
19!
16!
11
1+
#2860000
0"
08
#2870000
1"
18
09
#2880000
0"
08
#2890000
1"
18
19
1A
10!
1&!
1|
1t
1k
1b
1Z
1>
0=
0'!
1}
1u
1l
1c
0[
1)
0(
0(!
1~
1v
1m
1d
0\
09!
1)!
18!
17!
15!
06!
01
10
1/
1.
1-
1,
0+
1B
1C
0D
#2900000
0"
08
#2910000
1"
18
09
#2920000
0"
08
#2930000
1"
18
19
0A
00!
1.!
0/!
0&!
0|
0t
0k
0b
0Z
1?
0>
1'!
1[
0'!
0}
0u
0l
0c
0[
1*
0)
#2940000
0"
08
#2950000
1"
18
09
#2960000
0"
08
#2970000
1"
18
19
1A
0.!
0~
0v
0m
0d
0?
1;
0)!
08!
07!
05!
0*
1&
00
0/
0.
0-
0,
0B
#2980000
0"
08
#2990000
1"
18
09
#3000000
0"
08
#3010000
1"
18
19
0A
10!
1<
0;
1'
0&
#3020000
0"
08
#3030000
1"
18
09
#3040000
0"
08
#3050000
1"
18
19
1A
00!
1/!
1=
0<
1'!
1[
1(!
1\
1(
0'
19!
16!
11
1+
1B
0C
#3060000
0"
08
#3070000
1"
18
09
#3080000
0"
08
#3090000
1"
18
19
0A
10!
1&!
1|
1t
1k
1b
1Z
1>
0=
0'!
1}
1u
1l
1c
0[
1)
0(
0(!
1~
1v
1m
1d
0\
09!
1)!
18!
17!
15!
06!
01
10
1/
1.
1-
1,
0+
#3100000
0"
08
#3110000
1"
18
09
#3120000
0"
08
#3130000
1"
18
19
1A
00!
1.!
0/!
0&!
0|
0t
0k
0b
0Z
1?
0>
1'!
1[
0'!
0}
0u
0l
0c
0[
1*
0)
0B
#3140000
0"
08
#3150000
1"
18
09
#3160000
0"
08
#3170000
1"
18
19
0A
0.!
0~
0v
0m
0d
0?
1;
0)!
08!
07!
05!
0*
1&
00
0/
0.
0-
0,
#3180000
0"
08
#3190000
1"
18
09
#3200000
0"
08
#3210000
1"
18
19
1A
10!
1<
0;
1'
0&
1B
1C
1D
0E
#3220000
0"
08
#3230000
1"
18
09
#3240000
0"
08
#3250000
1"
18
19
0A
00!
1/!
1=
0<
1'!
1[
1(!
1\
1(
0'
19!
16!
11
1+
#3260000
0"
08
#3270000
1"
18
09
#3280000
0"
08
#3290000
1"
18
19
1A
10!
1&!
1|
1t
1k
1b
1Z
1>
0=
0'!
1}
1u
1l
1c
0[
1)
0(
0(!
1~
1v
1m
1d
0\
09!
1)!
18!
17!
15!
06!
01
10
1/
1.
1-
1,
0+
0B
#3300000
0"
08
#3310000
1"
18
09
#3320000
0"
08
#3330000
1"
18
19
0A
00!
1.!
0/!
0&!
0|
0t
0k
0b
0Z
1?
0>
1'!
1[
0'!
0}
0u
0l
0c
0[
1*
0)
#3340000
0"
08
#3350000
1"
18
09
#3360000
0"
08
#3370000
1"
18
19
1A
0.!
0~
0v
0m
0d
0?
1;
0)!
08!
07!
05!
0*
1&
00
0/
0.
0-
0,
1B
0C
#3380000
0"
08
#3390000
1"
18
09
#3400000
0"
08
#3410000
1"
18
19
0A
10!
1<
0;
1'
0&
#3420000
0"
08
#3430000
1"
18
09
#3440000
0"
08
#3450000
1"
18
19
1A
00!
1/!
1=
0<
1'!
1[
1(!
1\
1(
0'
19!
16!
11
1+
0B
#3460000
0"
08
#3470000
1"
18
09
#3480000
0"
08
#3490000
1"
18
19
0A
10!
1&!
1|
1t
1k
1b
1Z
1>
0=
0'!
1}
1u
1l
1c
0[
1)
0(
0(!
1~
1v
1m
1d
0\
09!
1)!
18!
17!
15!
06!
01
10
1/
1.
1-
1,
0+
#3500000
0"
08
#3510000
1"
18
09
#3520000
0"
08
#3530000
1"
18
19
1A
00!
1.!
0/!
0&!
0|
0t
0k
0b
0Z
1?
0>
1'!
1[
0'!
0}
0u
0l
0c
0[
1*
0)
1B
1C
0D
#3540000
0"
08
#3550000
1"
18
09
#3560000
0"
08
#3570000
1"
18
19
0A
0.!
0~
0v
0m
0d
0?
1;
0)!
08!
07!
05!
0*
1&
00
0/
0.
0-
0,
#3580000
0"
08
#3590000
1"
18
09
#3600000
0"
08
#3610000
1"
18
19
1A
10!
1<
0;
1'
0&
0B
#3620000
0"
08
#3630000
1"
18
09
#3640000
0"
08
#3650000
1"
18
19
0A
00!
1/!
1=
0<
1'!
1[
1(!
1\
1(
0'
19!
16!
11
1+
#3660000
0"
08
#3670000
1"
18
09
#3680000
0"
08
#3690000
1"
18
19
1A
10!
1&!
1|
1t
1k
1b
1Z
1>
0=
0'!
1}
1u
1l
1c
0[
1)
0(
0(!
1~
1v
1m
1d
0\
09!
1)!
18!
17!
15!
06!
01
10
1/
1.
1-
1,
0+
1B
0C
#3700000
0"
08
#3710000
1"
18
09
#3720000
0"
08
#3730000
1"
18
19
0A
00!
1.!
0/!
0&!
0|
0t
0k
0b
0Z
1?
0>
1'!
1[
0'!
0}
0u
0l
0c
0[
1*
0)
#3740000
0"
08
#3750000
1"
18
09
#3760000
0"
08
#3770000
1"
18
19
1A
0.!
0~
0v
0m
0d
0?
1;
0)!
08!
07!
05!
0*
1&
00
0/
0.
0-
0,
0B
#3780000
0"
08
#3790000
1"
18
09
#3800000
0"
08
#3810000
1"
18
19
0A
10!
1<
0;
1'
0&
#3820000
0"
08
#3830000
1"
18
09
#3840000
0"
08
#3850000
1"
18
19
1A
00!
1/!
1=
0<
1'!
1[
1(!
1\
1(
0'
19!
16!
11
1+
1B
1C
1D
1E
1$!
0#!
1y
1q
1h
1_
1X
0W
03!
12!
04!
0'!
1|
1u
1k
1c
0[
1F
0(!
1}
1v
1l
1d
0\
09!
1~
18!
1m
15!
06!
1)!
17!
01
1/
1,
0+
10
1.
1-
#3860000
0"
08
#3870000
1"
18
09
#3880000
0"
08
#3890000
1"
18
19
0A
10!
1&!
1t
1b
1Z
1>
0=
1)
0(
#3900000
0"
08
#3910000
1"
18
09
#3920000
0"
08
#3930000
1"
18
19
1A
00!
1.!
0/!
0&!
0|
0t
0k
0b
0Z
1?
0>
1'!
1[
0'!
0}
0u
0l
0c
0[
1*
0)
0B
#3940000
0"
08
#3950000
1"
18
09
#3960000
0"
08
#3970000
1"
18
19
0A
0.!
0~
0v
0m
0d
0?
1;
0)!
08!
07!
05!
0*
1&
00
0/
0.
0-
0,
#3980000
0"
08
#3990000
1"
18
09
#4000000
0"
08
#4010000
1"
18
19
1A
10!
1&!
1Z
1<
0;
1'!
1[
1'
0&
1(!
1\
19!
16!
11
1+
1B
0C
#4020000
0"
08
#4030000
1"
18
09
#4040000
0"
08
#4050000
1"
18
19
0A
00!
1/!
0&!
1|
1k
0Z
1=
0<
0'!
1u
1c
0[
1}
1l
0(!
1v
1d
0\
1(
0'
1~
1m
09!
18!
15!
06!
1)!
17!
01
1/
1,
0+
10
1.
1-
#4060000
0"
08
#4070000
1"
18
09
#4080000
0"
08
#4090000
1"
18
19
1A
10!
1&!
1t
1b
1Z
1>
0=
1)
0(
0B
#4100000
0"
08
#4110000
1"
18
09
#4120000
0"
08
#4130000
1"
18
19
0A
00!
1.!
0/!
0&!
0|
0t
0k
0b
0Z
1?
0>
1'!
1[
0'!
0}
0u
0l
0c
0[
1*
0)
#4140000
0"
08
#4150000
1"
18
09
#4160000
0"
08
#4170000
1"
18
19
1A
0.!
0~
0v
0m
0d
0?
1;
0)!
08!
07!
05!
0*
1&
00
0/
0.
0-
0,
1B
1C
0D
#4180000
0"
08
#4190000
1"
18
09
#4200000
0"
08
#4210000
1"
18
19
0A
10!
1&!
1Z
1<
0;
1'!
1[
1'
0&
1(!
1\
19!
16!
11
1+
#4220000
0"
08
#4230000
1"
18
09
#4240000
0"
08
#4250000
1"
18
19
1A
00!
1/!
0&!
1|
1k
0Z
1=
0<
0'!
1u
1c
0[
1}
1l
0(!
1v
1d
0\
1(
0'
1~
1m
09!
18!
15!
06!
1)!
17!
01
1/
1,
0+
10
1.
1-
0B
#4260000
0"
08
#4270000
1"
18
09
#4280000
0"
08
#4290000
1"
18
19
0A
10!
1&!
1t
1b
1Z
1>
0=
1)
0(
#4300000
0"
08
#4310000
1"
18
09
#4320000
0"
08
#4330000
1"
18
19
1A
00!
1.!
0/!
0&!
0|
0t
0k
0b
0Z
1?
0>
1'!
1[
0'!
0}
0u
0l
0c
0[
1*
0)
1B
0C
#4340000
0"
08
#4350000
1"
18
09
#4360000
0"
08
#4370000
1"
18
19
0A
0.!
0~
0v
0m
0d
0?
1;
0)!
08!
07!
05!
0*
1&
00
0/
0.
0-
0,
#4380000
0"
08
#4390000
1"
18
09
#4400000
0"
08
