simulation/qsim/Main.msim.vcd
$comment
	File created using the following command:
		vcd file Main.msim.vcd -direction
$end
$date
	Fri May 07 15:27:42 2021
$end
$version
	ModelSim Version 10.5b
$end
$timescale
	1ps
$end

$scope module Main_vlg_vec_tst $end
$var reg 1 ! aceito $end
$var reg 1 " clk50Mhz $end
$var reg 1 # comprometido $end
$var reg 1 $ rejeitado $end
$var wire 1 % C0 $end
$var wire 1 & C1 $end
$var wire 1 ' C2 $end
$var wire 1 ( C3 $end
$var wire 1 ) C4 $end
$var wire 1 * L0 $end
$var wire 1 + L1 $end
$var wire 1 , L2 $end
$var wire 1 - L3 $end
$var wire 1 . L4 $end
$var wire 1 / L5 $end
$var wire 1 0 L6 $end

$scope module i1 $end
$var wire 1 1 gnd $end
$var wire 1 2 vcc $end
$var wire 1 3 unknown $end
$var tri1 1 4 devclrn $end
$var tri1 1 5 devpor $end
$var tri1 1 6 devoe $end
$var wire 1 7 observerChangeState|aceito_delay~regout $end
$var wire 1 8 observerChangeState|rejeitado_delay~regout $end
$var wire 1 9 matrix|linha0|dff4|q~regout $end
$var wire 1 : matrix|linha1|dff4|q~regout $end
$var wire 1 ; matrix|linha2|dff4|q~regout $end
$var wire 1 < matrix|linha4|dff4|q~regout $end
$var wire 1 = matrix|linha5|dff4|q~regout $end
$var wire 1 > matrix|linha6|dff4|q~regout $end
$var wire 1 ? clk50Mhz~combout $end
$var wire 1 @ divClk|df0|dff|q~regout $end
$var wire 1 A rejeitado~combout $end
$var wire 1 B aceito~combout $end
$var wire 1 C comprometido~combout $end
$var wire 1 D observerChangeState|comprometido_delay~regout $end
$var wire 1 E observerChangeState|rst~0 $end
$var wire 1 F observerChangeState|rst $end
$var wire 1 G matrix|colunas|demultiplex|Decoder0~0_combout $end
$var wire 1 H matrix|colunas|demultiplex|Decoder0~1_combout $end
$var wire 1 I matrix|colunas|demultiplex|Decoder0~2_combout $end
$var wire 1 J matrix|colunas|demultiplex|Decoder0~3_combout $end
$var wire 1 K matrix|colunas|demultiplex|Decoder0~4_combout $end
$var wire 1 L matrix|linha0|multiplexer|Mux1~0_combout $end
$var wire 1 M divClk|df1|dff|q~regout $end
$var wire 1 N divClk|df2|dff|q~regout $end
$var wire 1 O divClk|df3|dff|q~regout $end
$var wire 1 P divClk|df4|dff|q~regout $end
$var wire 1 Q divClk|df5|dff|q~regout $end
$var wire 1 R gen_char|finish~combout $end
$var wire 1 S select_mensage|Multiplexer_0|Mux4~0_combout $end
$var wire 1 T counter_caracter|Equal0~1_combout $end
$var wire 1 U select_mensage|Multiplexer_1|Mux3~0_combout $end
$var wire 1 V counter_caracter|Add0~0_combout $end
$var wire 1 W counter_caracter|Equal0~0_combout $end
$var wire 1 X counter_caracter|Equal0~2_combout $end
$var wire 1 Y select_mensage|aceito_modulo|multiplex|Mux4~0_combout $end
$var wire 1 Z counter_caracter|Add0~1_combout $end
$var wire 1 [ select_mensage|Multiplexer_0|Mux0~0_combout $end
$var wire 1 \ select_mensage|Multiplexer_0|Mux0~1_combout $end
$var wire 1 ] matrix|linha0|dff0|q~regout $end
$var wire 1 ^ matrix|linha0|dff1|q~regout $end
$var wire 1 _ matrix|linha0|dff2|q~regout $end
$var wire 1 ` matrix|linha0|dff3|q~regout $end
$var wire 1 a matrix|linha0|multiplexer|Mux0~0 $end
$var wire 1 b matrix|linha0|multiplexer|Mux0~1 $end
$var wire 1 c matrix|linha0|multiplexer|Mux0~2_combout $end
$var wire 1 d matrix|linha1|dff0|q~regout $end
$var wire 1 e matrix|linha1|dff1|q~regout $end
$var wire 1 f matrix|linha1|dff2|q~regout $end
$var wire 1 g matrix|linha1|dff3|q~regout $end
$var wire 1 h matrix|linha1|multiplexer|Mux0~0 $end
$var wire 1 i matrix|linha1|multiplexer|Mux0~1 $end
$var wire 1 j matrix|linha1|multiplexer|Mux0~2_combout $end
$var wire 1 k matrix|linha2|dff0|q~regout $end
$var wire 1 l matrix|linha2|dff1|q~regout $end
$var wire 1 m matrix|linha2|dff2|q~regout $end
$var wire 1 n matrix|linha2|dff3|q~regout $end
$var wire 1 o matrix|linha2|multiplexer|Mux0~0 $end
$var wire 1 p matrix|linha2|multiplexer|Mux0~1 $end
$var wire 1 q matrix|linha2|multiplexer|Mux0~2_combout $end
$var wire 1 r matrix|linha4|dff0|q~regout $end
$var wire 1 s matrix|linha4|dff1|q~regout $end
$var wire 1 t matrix|linha4|dff2|q~regout $end
$var wire 1 u matrix|linha4|dff3|q~regout $end
$var wire 1 v matrix|linha4|multiplexer|Mux0~0 $end
$var wire 1 w matrix|linha4|multiplexer|Mux0~1 $end
$var wire 1 x matrix|linha4|multiplexer|Mux0~2_combout $end
$var wire 1 y matrix|linha5|dff0|q~regout $end
$var wire 1 z matrix|linha5|dff1|q~regout $end
$var wire 1 { matrix|linha5|dff2|q~regout $end
$var wire 1 | matrix|linha5|dff3|q~regout $end
$var wire 1 } matrix|linha5|multiplexer|Mux0~0 $end
$var wire 1 ~ matrix|linha5|multiplexer|Mux0~1 $end
$var wire 1 !! matrix|linha5|multiplexer|Mux0~2_combout $end
$var wire 1 "! matrix|linha6|dff0|q~regout $end
$var wire 1 #! matrix|linha6|dff1|q~regout $end
$var wire 1 $! matrix|linha6|dff2|q~regout $end
$var wire 1 %! matrix|linha6|dff3|q~regout $end
$var wire 1 &! matrix|linha6|multiplexer|Mux0~0 $end
$var wire 1 '! matrix|linha6|multiplexer|Mux0~1 $end
$var wire 1 (! matrix|linha6|multiplexer|Mux0~2_combout $end
$var wire 1 )! matrix|counter|val [2] $end
$var wire 1 *! matrix|counter|val [1] $end
$var wire 1 +! matrix|counter|val [0] $end
$var wire 1 ,! matrix|linha6|multiplexer|out [0] $end
$var wire 1 -! counter_coluna|val [3] $end
$var wire 1 .! counter_coluna|val [2] $end
$var wire 1 /! counter_coluna|val [1] $end
$var wire 1 0! counter_coluna|val [0] $end
$var wire 1 1! matrix|linha1|multiplexer|out [0] $end
$var wire 1 2! counter_caracter|val [3] $end
$var wire 1 3! counter_caracter|val [2] $end
$var wire 1 4! counter_caracter|val [1] $end
$var wire 1 5! counter_caracter|val [0] $end
$var wire 1 6! matrix|linha4|multiplexer|out [0] $end
$var wire 1 7! matrix|linha0|multiplexer|out [0] $end
$var wire 1 8! matrix|linha2|multiplexer|out [0] $end
$var wire 1 9! matrix|linha5|multiplexer|out [0] $end
$var wire 1 :! select_mensage|Multiplexer_0|out [3] $end
$var wire 1 ;! select_mensage|Multiplexer_0|out [2] $end
$var wire 1 <! select_mensage|Multiplexer_0|out [1] $end
$var wire 1 =! select_mensage|Multiplexer_0|out [0] $end
$var wire 1 >! select_mensage|aceito_modulo|multiplex|out [3] $end
$var wire 1 ?! select_mensage|aceito_modulo|multiplex|out [2] $end
$var wire 1 @! select_mensage|aceito_modulo|multiplex|out [1] $end
$var wire 1 A! select_mensage|aceito_modulo|multiplex|out [0] $end
$var wire 1 B! select_mensage|Multiplexer_1|out [3] $end
$var wire 1 C! select_mensage|Multiplexer_1|out [2] $end
$var wire 1 D! select_mensage|Multiplexer_1|out [1] $end
$var wire 1 E! select_mensage|Multiplexer_1|out [0] $end
$upscope $end
$upscope $end
$enddefinitions $end
#0
$dumpvars
0!
0"
1#
0$
1%
0&
0'
0(
0)
1*
1+
1,
1-
1.
1/
10
01
12
x3
14
15
16
07
08
09
0:
0;
0<
0=
0>
0?
0@
0A
0B
1C
0D
1E
1F
1G
0H
0I
0J
0K
1L
0M
0N
0O
0P
0Q
0R
1S
1T
1U
0V
0W
0X
0Y
0Z
0[
1\
0]
0^
0_
0`
1a
1b
1c
0d
0e
0f
0g
1h
1i
1j
0k
0l
0m
0n
1o
1p
1q
0r
0s
0t
0u
1v
1w
1x
0y
0z
0{
0|
1}
1~
1!!
0"!
0#!
0$!
0%!
1&!
1'!
1(!
0+!
0*!
0)!
1,!
00!
0/!
0.!
0-!
11!
05!
04!
03!
02!
16!
17!
18!
19!
1=!
z<!
z;!
z:!
0A!
z@!
z?!
z>!
1E!
1D!
0C!
1B!
$end
#10000
1"
1?
1D
1@
0E
0F
1M
1N
1O
1P
1Q
1y
1r
1k
1d
10!
#20000
0"
0?
#30000
1"
1?
0@
#40000
0"
0?
#50000
1"
1?
1@
0M
1+!
0}
0o
1H
0G
1&
0%
#60000
0"
0?
#70000
1"
1?
0@
#80000
0"
0?
#90000
1"
1?
1@
1M
1*!
0+!
0&!
1}
0v
1o
0h
0a
1I
0H
0~
0p
1~
1p
0!!
0q
1'
0&
1!!
1q
09!
08!
19!
18!
0/
0-
0,
1/
1-
1,
0N
#100000
0"
0?
#110000
1"
1?
0@
#120000
0"
0?
#130000
1"
1?
1@
0M
1+!
1&!
1v
1h
1a
1J
0I
1(
0'
#140000
0"
0?
#150000
1"
1?
0@
#160000
0"
0?
#170000
1"
1?
1@
1M
0*!
0+!
1)!
1K
0J
0!!
0x
0q
0j
09!
06!
08!
01!
1)
0(
0/
0.
0-
0,
0+
1N
0O
#180000
0"
0?
#190000
1"
1?
0@
#200000
0"
0?
#210000
1"
1?
1@
0M
0)!
1!!
1x
1q
1j
0K
1G
19!
16!
18!
11!
0)
1%
1/
1.
1-
1,
1+
#220000
0"
0?
#230000
1"
1?
0@
#240000
0"
0?
#250000
1"
1?
1@
1M
1+!
0}
0o
1H
0G
1&
0%
0N
#260000
0"
0?
#270000
1"
1?
0@
#280000
0"
0?
#290000
1"
1?
1@
0M
1*!
0+!
0&!
1}
0v
1o
0h
0a
1I
0H
0~
0p
1~
1p
0!!
0q
1'
0&
1!!
1q
09!
08!
19!
18!
0/
0-
0,
1/
1-
1,
#300000
0"
0?
#310000
1"
1?
0@
#320000
0"
0?
#330000
1"
1?
1@
1M
1+!
1&!
1v
1h
1a
1J
0I
1(
0'
1N
1O
0P
#340000
0"
0?
#350000
1"
1?
0@
#360000
0"
0?
#370000
1"
1?
1@
0M
0*!
0+!
1)!
1K
0J
0!!
0x
0q
0j
09!
06!
08!
01!
1)
0(
0/
0.
0-
0,
0+
#380000
0"
0?
#390000
1"
1?
0@
#400000
0"
0?
#410000
1"
1?
1@
1M
0)!
1!!
1x
1q
1j
0K
1G
19!
16!
18!
11!
0)
1%
1/
1.
1-
1,
1+
0N
#420000
0"
0?
#430000
1"
1?
0@
#440000
0"
0?
#450000
1"
1?
1@
0M
1+!
0}
0o
1H
0G
1&
0%
#460000
0"
0?
#470000
1"
1?
0@
#480000
0"
0?
#490000
1"
1?
1@
1M
1*!
0+!
0&!
1}
0v
1o
0h
0a
1I
0H
0~
0p
1~
1p
0!!
0q
1'
0&
1!!
1q
09!
08!
19!
18!
0/
0-
0,
1/
1-
1,
1N
0O
#500000
0"
0?
#510000
1"
1?
0@
#520000
0"
0?
#530000
1"
1?
1@
0M
1+!
1&!
1v
1h
1a
1J
0I
1(
0'
#540000
0"
0?
#550000
1"
1?
0@
#560000
0"
0?
#570000
1"
1?
1@
1M
0*!
0+!
1)!
1K
0J
0!!
0x
0q
0j
09!
06!
08!
01!
1)
0(
0/
0.
0-
0,
0+
0N
#580000
0"
0?
#590000
1"
1?
0@
#600000
0"
0?
#610000
1"
1?
1@
0M
0)!
1!!
1x
1q
1j
0K
1G
19!
16!
18!
11!
0)
1%
1/
1.
1-
1,
1+
#620000
0"
0?
#630000
1"
1?
0@
#640000
0"
0?
#650000
1"
1?
1@
1M
1+!
0}
0o
1H
0G
1&
0%
1N
1O
1P
0Q
#660000
0"
0?
#670000
1"
1?
0@
#680000
0"
0?
#690000
1"
1?
1@
0M
1*!
0+!
0&!
1}
0v
1o
0h
0a
1I
0H
0~
0p
1~
1p
0!!
0q
1'
0&
1!!
1q
09!
08!
19!
18!
0/
0-
0,
1/
1-
1,
#700000
0"
0?
#710000
1"
1?
0@
#720000
0"
0?
#730000
1"
1?
1@
1M
1+!
1&!
1v
1h
1a
1J
0I
1(
0'
0N
#740000
0"
0?
#750000
1"
1?
0@
#760000
0"
0?
#770000
1"
1?
1@
0M
0*!
0+!
1)!
1K
0J
0!!
0x
0q
0j
09!
06!
08!
01!
1)
0(
0/
0.
0-
0,
0+
#780000
0"
0?
#790000
1"
1?
0@
#800000
0"
0?
#810000
1"
1?
1@
1M
0)!
1!!
1x
1q
1j
0K
1G
19!
16!
18!
11!
0)
1%
1/
1.
1-
1,
1+
1N
0O
#820000
0"
0?
#830000
1"
1?
0@
#840000
0"
0?
#850000
1"
1?
1@
0M
1+!
0}
0o
1H
0G
1&
0%
#860000
0"
0?
#870000
1"
1?
0@
#880000
0"
0?
#890000
1"
1?
1@
1M
1*!
0+!
0&!
1}
0v
1o
0h
0a
1I
0H
0~
0p
1~
1p
0!!
0q
1'
0&
1!!
1q
09!
08!
19!
18!
0/
0-
0,
1/
1-
1,
0N
#900000
0"
0?
#910000
1"
1?
0@
#920000
0"
0?
#930000
1"
1?
1@
0M
1+!
1&!
1v
1h
1a
1J
0I
1(
0'
#940000
0"
0?
#950000
1"
1?
0@
#960000
0"
0?
#970000
1"
1?
1@
1M
0*!
0+!
1)!
1K
0J
0!!
0x
0q
0j
09!
06!
08!
01!
1)
0(
0/
0.
0-
0,
0+
1N
1O
0P
#980000
0"
0?
#990000
1"
1?
0@
#1000000
0"
0?
#1010000
1"
1?
1@
0M
0)!
1!!
1x
1q
1j
0K
1G
19!
16!
18!
11!
0)
1%
1/
1.
1-
1,
1+
#1020000
0"
0?
#1030000
1"
1?
0@
#1040000
0"
0?
#1050000
1"
1?
1@
1M
1+!
0}
0o
1H
0G
1&
0%
0N
#1060000
0"
0?
#1070000
1"
1?
0@
#1080000
0"
0?
#1090000
1"
1?
1@
0M
1*!
0+!
0&!
1}
0v
1o
0h
0a
1I
0H
0~
0p
1~
1p
0!!
0q
1'
0&
1!!
1q
09!
08!
19!
18!
0/
0-
0,
1/
1-
1,
#1100000
0"
0?
#1110000
1"
1?
0@
#1120000
0"
0?
#1130000
1"
1?
1@
1M
1+!
1&!
1v
1h
1a
1J
0I
1(
0'
1N
0O
#1140000
0"
0?
#1150000
1"
1?
0@
#1160000
0"
0?
#1170000
1"
1?
1@
0M
0*!
0+!
1)!
1K
0J
0!!
0x
0q
0j
09!
06!
08!
01!
1)
0(
0/
0.
0-
0,
0+
#1180000
0"
0?
#1190000
1"
1?
0@
#1200000
0"
0?
#1210000
1"
1?
1@
1M
0)!
1!!
1x
1q
1j
0K
1G
19!
16!
18!
11!
0)
1%
1/
1.
1-
1,
1+
0N
#1220000
0"
0?
#1230000
1"
1?
0@
#1240000
0"
0?
#1250000
1"
1?
1@
0M
1+!
0}
0o
1H
0G
1&
0%
#1260000
0"
0?
#1270000
1"
1?
0@
#1280000
0"
0?
#1290000
1"
1?
1@
1M
1*!
0+!
0&!
1}
0v
1o
0h
0a
1I
0H
0~
0p
1~
1p
0!!
0q
1'
0&
1!!
1q
09!
08!
19!
18!
0/
0-
0,
1/
1-
1,
1N
1O
1P
1Q
1"!
1z
0y
1s
0r
1l
0k
1e
0d
1]
1/!
00!
#1300000
0"
0?
#1310000
1"
1?
0@
#1320000
0"
0?
#1330000
1"
1?
1@
0M
1+!
1&!
0~
1v
0p
1h
1a
1J
0I
0!!
0w
0q
0i
1(
0'
09!
0x
08!
0j
06!
01!
0/
0-
0,
0.
0+
#1340000
0"
0?
#1350000
1"
1?
0@
#1360000
0"
0?
#1370000
1"
1?
1@
1M
0*!
0+!
1)!
1w
1i
1K
0J
1~
1p
0(!
1!!
1x
1q
1j
0c
0,!
19!
16!
18!
11!
07!
1)
0(
00
1/
1.
1-
1,
1+
0*
0N
#1380000
0"
0?
#1390000
1"
1?
0@
#1400000
0"
0?
#1410000
1"
1?
1@
0M
0)!
1(!
1c
0K
1G
1,!
17!
0)
1%
10
1*
#1420000
0"
0?
#1430000
1"
1?
0@
#1440000
0"
0?
#1450000
1"
1?
1@
1M
1+!
0}
0~
0o
0p
1H
0G
1~
0!!
1p
0q
1&
0%
1!!
09!
1q
08!
19!
18!
0/
0-
0,
1/
1-
1,
1N
0O
#1460000
0"
0?
#1470000
1"
1?
0@
#1480000
0"
0?
#1490000
1"
1?
1@
0M
1*!
0+!
0&!
1}
0v
0w
1o
0h
0i
0a
1I
0H
0~
0p
1~
1w
0x
1p
1i
0j
0!!
0q
1'
0&
1!!
1x
06!
1q
1j
01!
09!
08!
19!
16!
18!
11!
0.
0+
0/
0-
0,
1/
1.
1-
1,
1+
#1500000
0"
0?
#1510000
1"
1?
0@
#1520000
0"
0?
#1530000
1"
1?
1@
1M
1+!
1&!
0~
1v
0p
1h
1a
1J
0I
0!!
0w
0q
0i
1(
0'
09!
0x
08!
0j
06!
01!
0/
0-
0,
0.
0+
0N
#1540000
0"
0?
#1550000
1"
1?
0@
#1560000
0"
0?
#1570000
1"
1?
1@
0M
0*!
0+!
1)!
1w
1i
1K
0J
1~
1p
0(!
1!!
1x
1q
1j
0c
0,!
19!
16!
18!
11!
07!
1)
0(
00
1/
1.
1-
1,
1+
0*
#1580000
0"
0?
#1590000
1"
1?
0@
#1600000
0"
0?
#1610000
1"
1?
1@
1M
0)!
1(!
1c
0K
1G
1,!
17!
0)
1%
10
1*
1N
1O
0P
#1620000
0"
0?
#1630000
1"
1?
0@
#1640000
0"
0?
#1650000
1"
1?
1@
0M
1+!
0}
0~
0o
0p
1H
0G
1~
0!!
1p
0q
1&
0%
1!!
09!
1q
08!
19!
18!
0/
0-
0,
1/
1-
1,
#1660000
0"
0?
#1670000
1"
1?
0@
#1680000
0"
0?
#1690000
1"
1?
1@
1M
1*!
0+!
0&!
1}
0v
0w
1o
0h
0i
0a
1I
0H
0~
0p
1~
1w
0x
1p
1i
0j
0!!
0q
1'
0&
1!!
1x
06!
1q
1j
01!
09!
08!
19!
16!
18!
11!
0.
0+
0/
0-
0,
1/
1.
1-
1,
1+
0N
#1700000
0"
0?
#1710000
1"
1?
0@
#1720000
0"
0?
#1730000
1"
1?
1@
0M
1+!
1&!
0~
1v
0p
1h
1a
1J
0I
0!!
0w
0q
0i
1(
0'
09!
0x
08!
0j
06!
01!
0/
0-
0,
0.
0+
#1740000
0"
0?
#1750000
1"
1?
0@
#1760000
0"
0?
#1770000
1"
1?
1@
1M
0*!
0+!
1)!
1w
1i
1K
0J
1~
1p
0(!
1!!
1x
1q
1j
0c
0,!
19!
16!
18!
11!
07!
1)
0(
00
1/
1.
1-
1,
1+
0*
1N
0O
#1780000
0"
0?
#1790000
1"
1?
0@
#1800000
0"
0?
#1810000
1"
1?
1@
0M
0)!
1(!
1c
0K
1G
1,!
17!
0)
1%
10
1*
#1820000
0"
0?
#1830000
1"
1?
0@
#1840000
0"
0?
#1850000
1"
1?
1@
1M
1+!
0}
0~
0o
0p
1H
0G
1~
0!!
1p
0q
1&
0%
1!!
09!
1q
08!
19!
18!
0/
0-
0,
1/
1-
1,
0N
#1860000
0"
0?
#1870000
1"
1?
0@
#1880000
0"
0?
#1890000
1"
1?
1@
0M
1*!
0+!
0&!
1}
0v
0w
1o
0h
0i
0a
1I
0H
0~
0p
1~
1w
0x
1p
1i
0j
0!!
0q
1'
0&
1!!
1x
06!
1q
1j
01!
09!
08!
19!
16!
18!
11!
0.
0+
0/
0-
0,
1/
1.
1-
1,
1+
#1900000
0"
0?
#1910000
1"
1?
0@
#1920000
0"
0?
#1930000
1"
1?
1@
1M
1+!
1&!
0~
1v
0p
1h
1a
1J
0I
0!!
0w
0q
0i
1(
0'
09!
0x
08!
0j
06!
01!
0/
0-
0,
0.
0+
1N
1O
1P
0Q
#1940000
0"
0?
#1950000
1"
1?
0@
#1960000
0"
0?
#1970000
1"
1?
1@
0M
0*!
0+!
1)!
1w
1i
1K
0J
1~
1p
0(!
1!!
1x
1q
1j
0c
0,!
19!
16!
18!
11!
07!
1)
0(
00
1/
1.
1-
1,
1+
0*
#1980000
0"
0?
#1990000
1"
1?
0@
#2000000
0"
0?
#2010000
1"
1?
1@
1M
0)!
1(!
1c
0K
1G
1,!
17!
0)
1%
10
1*
0N
#2020000
0"
0?
#2030000
1"
1?
0@
#2040000
0"
0?
#2050000
1"
1?
1@
0M
1+!
0}
0~
0o
0p
1H
0G
1~
0!!
1p
0q
1&
0%
1!!
09!
1q
08!
19!
18!
0/
0-
0,
1/
1-
1,
#2060000
0"
0?
#2070000
1"
1?
0@
#2080000
0"
0?
#2090000
1"
1?
1@
1M
1*!
0+!
0&!
1}
0v
0w
1o
0h
0i
0a
1I
0H
0~
0p
1~
1w
0x
1p
1i
0j
0!!
0q
1'
0&
1!!
1x
06!
1q
1j
01!
09!
08!
19!
16!
18!
11!
0.
0+
0/
0-
0,
1/
1.
1-
1,
1+
1N
0O
#2100000
0"
0?
#2110000
1"
1?
0@
#2120000
0"
0?
#2130000
1"
1?
1@
0M
1+!
1&!
0~
1v
0p
1h
1a
1J
0I
0!!
0w
0q
0i
1(
0'
09!
0x
08!
0j
06!
01!
0/
0-
0,
0.
0+
#2140000
0"
0?
#2150000
1"
1?
0@
#2160000
0"
0?
#2170000
1"
1?
1@
1M
0*!
0+!
1)!
1w
1i
1K
0J
1~
1p
0(!
1!!
1x
1q
1j
0c
0,!
19!
16!
18!
11!
07!
1)
0(
00
1/
1.
1-
1,
1+
0*
0N
#2180000
0"
0?
#2190000
1"
1?
0@
#2200000
0"
0?
#2210000
1"
1?
1@
0M
0)!
1(!
1c
0K
1G
1,!
17!
0)
1%
10
1*
#2220000
0"
0?
#2230000
1"
1?
0@
#2240000
0"
0?
#2250000
1"
1?
1@
1M
1+!
0}
0~
0o
0p
1H
0G
1~
0!!
1p
0q
1&
0%
1!!
09!
1q
08!
19!
18!
0/
0-
0,
1/
1-
1,
1N
1O
0P
#2260000
0"
0?
#2270000
1"
1?
0@
#2280000
0"
0?
#2290000
1"
1?
1@
0M
1*!
0+!
0&!
1}
0v
0w
1o
0h
0i
0a
1I
0H
0~
0p
1~
1w
0x
1p
1i
0j
0!!
0q
1'
0&
1!!
1x
06!
1q
1j
01!
09!
08!
19!
16!
18!
11!
0.
0+
0/
0-
0,
1/
1.
1-
1,
1+
#2300000
0"
0?
#2310000
1"
1?
0@
#2320000
0"
0?
#2330000
1"
1?
1@
1M
1+!
1&!
0~
1v
0p
1h
1a
1J
0I
0!!
0w
0q
0i
1(
0'
09!
0x
08!
0j
06!
01!
0/
0-
0,
0.
0+
0N
#2340000
0"
0?
#2350000
1"
1?
0@
#2360000
0"
0?
#2370000
1"
1?
1@
0M
0*!
0+!
1)!
1w
1i
1K
0J
1~
1p
0(!
1!!
1x
1q
1j
0c
0,!
19!
16!
18!
11!
07!
1)
0(
00
1/
1.
1-
1,
1+
0*
#2380000
0"
0?
#2390000
1"
1?
0@
#2400000
0"
0?
#2410000
1"
1?
1@
1M
0)!
1(!
1c
0K
1G
1,!
17!
0)
1%
10
1*
1N
0O
#2420000
0"
0?
#2430000
1"
1?
0@
#2440000
0"
0?
#2450000
1"
1?
1@
0M
1+!
0}
0~
0o
0p
1H
0G
1~
0!!
1p
0q
1&
0%
1!!
09!
1q
08!
19!
18!
0/
0-
0,
1/
1-
1,
#2460000
0"
0?
#2470000
1"
1?
0@
#2480000
0"
0?
#2490000
1"
1?
1@
1M
1*!
0+!
0&!
1}
0v
0w
1o
0h
0i
0a
1I
0H
0~
0p
1~
1w
0x
1p
1i
0j
0!!
0q
1'
0&
1!!
1x
06!
1q
1j
01!
09!
08!
19!
16!
18!
11!
0.
0+
0/
0-
0,
1/
1.
1-
1,
1+
0N
#2500000
0"
0?
#2510000
1"
1?
0@
#2520000
0"
0?
#2530000
1"
1?
1@
0M
1+!
1&!
0~
1v
0p
1h
1a
1J
0I
0!!
0w
0q
0i
1(
0'
09!
0x
08!
0j
06!
01!
0/
0-
0,
0.
0+
#2540000
0"
0?
#2550000
1"
1?
0@
#2560000
0"
0?
#2570000
1"
1?
1@
1M
0*!
0+!
1)!
1w
1i
1K
0J
1~
1p
0(!
1!!
1x
1q
1j
0c
0,!
19!
16!
18!
11!
07!
1)
0(
00
1/
1.
1-
1,
1+
0*
1N
1O
1P
1Q
1#!
1{
0z
1t
0s
1m
0l
1f
0e
1^
10!
#2580000
0"
0?
#2590000
1"
1?
0@
#2600000
0"
0?
#2610000
1"
1?
1@
0M
0)!
1(!
1c
0K
1G
1,!
17!
0)
1%
10
1*
#2620000
0"
0?
#2630000
1"
1?
0@
#2640000
0"
0?
#2650000
1"
1?
1@
1M
1+!
0}
0o
1H
0G
1&
0%
0N
#2660000
0"
0?
#2670000
1"
1?
0@
#2680000
0"
0?
#2690000
1"
1?
1@
0M
1*!
0+!
0&!
0'!
0v
0h
0a
0b
1I
0H
0~
0p
1'!
0(!
0w
0i
1b
0c
0!!
0q
1'
0&
1(!
0,!
0x
0j
1c
07!
09!
08!
1,!
06!
01!
17!
00
0*
0/
0-
0,
10
0.
0+
1*
#2700000
0"
0?
#2710000
1"
1?
0@
#2720000
0"
0?
#2730000
1"
1?
1@
1M
1+!
1&!
1}
1~
1v
1o
1p
1h
1a
1J
0I
0'!
1!!
1w
1q
1i
0b
1(
0'
0(!
19!
1x
18!
1j
0c
0,!
16!
11!
07!
1/
1-
1,
00
1.
1+
0*
1N
0O
#2740000
0"
0?
#2750000
1"
1?
0@
#2760000
0"
0?
#2770000
1"
1?
1@
0M
0*!
0+!
1)!
1'!
1b
1K
0J
1)
0(
#2780000
0"
0?
#2790000
1"
1?
0@
#2800000
0"
0?
#2810000
1"
1?
1@
1M
0)!
1(!
1c
0K
1G
1,!
17!
0)
1%
10
1*
0N
#2820000
0"
0?
#2830000
1"
1?
0@
#2840000
0"
0?
#2850000
1"
1?
1@
0M
1+!
0}
0o
1H
0G
1&
0%
#2860000
0"
0?
#2870000
1"
1?
0@
#2880000
0"
0?
#2890000
1"
1?
1@
1M
1*!
0+!
0&!
0'!
0v
0h
0a
0b
1I
0H
0~
0p
1'!
0(!
0w
0i
1b
0c
0!!
0q
1'
0&
1(!
0,!
0x
0j
1c
07!
09!
08!
1,!
06!
01!
17!
00
0*
0/
0-
0,
10
0.
0+
1*
1N
1O
0P
#2900000
0"
0?
#2910000
1"
1?
0@
#2920000
0"
0?
#2930000
1"
1?
1@
0M
1+!
1&!
1}
1~
1v
1o
1p
1h
1a
1J
0I
0'!
1!!
1w
1q
1i
0b
1(
0'
0(!
19!
1x
18!
1j
0c
0,!
16!
11!
07!
1/
1-
1,
00
1.
1+
0*
#2940000
0"
0?
#2950000
1"
1?
0@
#2960000
0"
0?
#2970000
1"
1?
1@
1M
0*!
0+!
1)!
1'!
1b
1K
0J
1)
0(
0N
#2980000
0"
0?
#2990000
1"
1?
0@
#3000000
0"
0?
#3010000
1"
1?
1@
0M
0)!
1(!
1c
0K
1G
1,!
17!
0)
1%
10
1*
#3020000
0"
0?
#3030000
1"
1?
0@
#3040000
0"
0?
#3050000
1"
1?
1@
1M
1+!
0}
0o
1H
0G
1&
0%
1N
0O
#3060000
0"
0?
#3070000
1"
1?
0@
#3080000
0"
0?
#3090000
1"
1?
1@
0M
1*!
0+!
0&!
0'!
0v
0h
0a
0b
1I
0H
0~
0p
1'!
0(!
0w
0i
1b
0c
0!!
0q
1'
0&
1(!
0,!
0x
0j
1c
07!
09!
08!
1,!
06!
01!
17!
00
0*
0/
0-
0,
10
0.
0+
1*
#3100000
0"
0?
#3110000
1"
1?
0@
#3120000
0"
0?
#3130000
1"
1?
1@
1M
1+!
1&!
1}
1~
1v
1o
1p
1h
1a
1J
0I
0'!
1!!
1w
1q
1i
0b
1(
0'
0(!
19!
1x
18!
1j
0c
0,!
16!
11!
07!
1/
1-
1,
00
1.
1+
0*
0N
#3140000
0"
0?
#3150000
1"
1?
0@
#3160000
0"
0?
#3170000
1"
1?
1@
0M
0*!
0+!
1)!
1'!
1b
1K
0J
1)
0(
#3180000
0"
0?
#3190000
1"
1?
0@
#3200000
0"
0?
#3210000
1"
1?
1@
1M
0)!
1(!
1c
0K
1G
1,!
17!
0)
1%
10
1*
1N
1O
1P
0Q
#3220000
0"
0?
#3230000
1"
1?
0@
#3240000
0"
0?
#3250000
1"
1?
1@
0M
1+!
0}
0o
1H
0G
1&
0%
#3260000
0"
0?
#3270000
1"
1?
0@
#3280000
0"
0?
#3290000
1"
1?
1@
1M
1*!
0+!
0&!
0'!
0v
0h
0a
0b
1I
0H
0~
0p
1'!
0(!
0w
0i
1b
0c
0!!
0q
1'
0&
1(!
0,!
0x
0j
1c
07!
09!
08!
1,!
06!
01!
17!
00
0*
0/
0-
0,
10
0.
0+
1*
0N
#3300000
0"
0?
#3310000
1"
1?
0@
#3320000
0"
0?
#3330000
1"
1?
1@
0M
1+!
1&!
1}
1~
1v
1o
1p
1h
1a
1J
0I
0'!
1!!
1w
1q
1i
0b
1(
0'
0(!
19!
1x
18!
1j
0c
0,!
16!
11!
07!
1/
1-
1,
00
1.
1+
0*
#3340000
0"
0?
#3350000
1"
1?
0@
#3360000
0"
0?
#3370000
1"
1?
1@
1M
0*!
0+!
1)!
1'!
1b
1K
0J
1)
0(
1N
0O
#3380000
0"
0?
#3390000
1"
1?
0@
#3400000
0"
0?
#3410000
1"
1?
1@
0M
0)!
1(!
1c
0K
1G
1,!
17!
0)
1%
10
1*
#3420000
0"
0?
#3430000
1"
1?
0@
#3440000
0"
0?
#3450000
1"
1?
1@
1M
1+!
0}
0o
1H
0G
1&
0%
0N
#3460000
0"
0?
#3470000
1"
1?
0@
#3480000
0"
0?
#3490000
1"
1?
1@
0M
1*!
0+!
0&!
0'!
0v
0h
0a
0b
1I
0H
0~
0p
1'!
0(!
0w
0i
1b
0c
0!!
0q
1'
0&
1(!
0,!
0x
0j
1c
07!
09!
08!
1,!
06!
01!
17!
00
0*
0/
0-
0,
10
0.
0+
1*
#3500000
0"
0?
#3510000
1"
1?
0@
